{
    "KPackageStructure": "Plasma/Applet",
    "KPlugin": {
        "Authors": [
            {
                "Email": "notmart@gmail.com",
                "Name": "Marco Martin",
                "Name[ar]": "ماركو مارتن",
                "Name[ast]": "Marco Martin",
                "Name[az]": "Marco Martin",
                "Name[be]": "Marco Martin",
                "Name[bg]": "Marco Martin",
                "Name[ca@valencia]": "Marco Martin",
                "Name[ca]": "Marco Martin",
                "Name[cs]": "Marco Martin",
                "Name[de]": "Marco Martin",
                "Name[en_GB]": "Marco Martin",
                "Name[eo]": "Marco Martin",
                "Name[es]": "Marco Martin",
                "Name[eu]": "Marco Martin",
                "Name[fi]": "Marco Martin",
                "Name[fr]": "Marco Martin",
                "Name[ia]": "Marco Martin",
                "Name[id]": "Marco Martin",
                "Name[it]": "Marco Martin",
                "Name[ka]": "Marco Martin",
                "Name[ko]": "Marco Martin",
                "Name[nl]": "Marco Martin",
                "Name[nn]": "Marco Martin",
                "Name[pl]": "Marco Martin",
                "Name[pt]": "Marco Martin",
                "Name[pt_BR]": "Marco Martin",
                "Name[ru]": "Marco Martin",
                "Name[sk]": "Marco Martin",
                "Name[sl]": "Marco Martin",
                "Name[sv]": "Marco Martin",
                "Name[tr]": "Marco Martin",
                "Name[uk]": "Marco Martin",
                "Name[vi]": "Marco Martin",
                "Name[x-test]": "xxMarco Martinxx",
                "Name[zh_CN]": "Marco Martin"
            }
        ],
        "Category": "Examples",
        "Description": "gallery of widgets done with Plasma QtComponents",
        "Description[az]": "Plasmada QtComponents köməyi ilə reallaşan vidjetlər qalareyası",
        "Description[be]": "галерэя віджэтаў, зробленых з дапамогай Plasma QtComponents",
        "Description[bg]": "галерия от уиджети с QtComponents на Plasma",
        "Description[ca@valencia]": "Galeria de ginys fets amb «QtComponents» de Plasma",
        "Description[ca]": "Galeria de ginys fets amb el «QtComponents» del Plasma",
        "Description[en_GB]": "gallery of widgets done with Plasma QtComponents",
        "Description[eo]": "galerio de fenestraĵoj faritaj per Plasma QtComponents",
        "Description[es]": "Galería de widgets realizada con QtComponents de Plasma",
        "Description[eu]": "Plasmaren «QtComponents» erabiliz egindako trepeta-galeria",
        "Description[fi]": "Plasma QtComponentsilla tehty sovelmagalleria",
        "Description[fr]": "galerie de composants graphiques, réalisées avec les composants Qt de Plasma",
        "Description[ia]": "galleria de widget facite con Plasma QtComponents",
        "Description[id]": "galeri widget yang dibuat dengan Plasma QtComponents",
        "Description[it]": "galleria di widget realizzata con Plasma QtComponents",
        "Description[ka]": "plasma QtComponents-ით დაწერილი ვიჯეტების გალერეა",
        "Description[ko]": "Plasma QtComponents로 작성한 위젯 갤러리",
        "Description[nl]": "galerij van widgets gemaakt met Plasma QtComponents",
        "Description[nn]": "Galleri med element laga med Plasma QtComponents",
        "Description[pl]": "galeria elementów interfejsu wykonana w QtComponents Plazmy",
        "Description[pt]": "galeria de elementos criados com os QtComponents do Plasma",
        "Description[pt_BR]": "Galeria de widgets feitos com Plasma QtComponents",
        "Description[ru]": "Галерея виджетов, реализованная при помощи QtComponents в Plasma",
        "Description[sk]": "galéria miniaplikácií vytvorených pomocou Plasma QtComponents",
        "Description[sl]": "galerija gradnikov izdelanih s Plasma QtComponents",
        "Description[sv]": "galleri av grafiska komponenter skapade med Plasma Qt-komponenter",
        "Description[tr]": "Plasma QtComponents ile yapılmış araç takımları galerisi",
        "Description[uk]": "Галерея віджетів, створених за допомогою QtComponent-ів Плазми",
        "Description[vi]": "nơi trưng bày các phụ kiện làm bằng QtComponents của Plasma",
        "Description[x-test]": "xxgallery of widgets done with Plasma QtComponentsxx",
        "Description[zh_CN]": "通过 Plasma Qt 组件实现的挂件展厅",
        "EnabledByDefault": true,
        "Icon": "preferences-desktop-theme",
        "Id": "org.kde.example.widgetgallery",
        "License": "GPL",
        "Name": "Widgets gallery",
        "Name[az]": "Vidjetlər qalareyası",
        "Name[be]": "Галерэя віджэтаў",
        "Name[bg]": "Галерия с уиджети",
        "Name[ca@valencia]": "Galeria de ginys",
        "Name[ca]": "Galeria de ginys",
        "Name[cs]": "Galerie widgetů",
        "Name[en_GB]": "Widgets gallery",
        "Name[eo]": "Widgets galerio",
        "Name[es]": "Galería de widgets",
        "Name[eu]": "Trepeten galeria",
        "Name[fi]": "Sovelmagalleria",
        "Name[fr]": "Galerie de composants graphiques",
        "Name[ia]": "Galleria de widget",
        "Name[id]": "Galeri widget",
        "Name[it]": "Galleria dei widget",
        "Name[ka]": "ვიჯეტების გალერეა",
        "Name[ko]": "위젯 갤러리",
        "Name[nl]": "Galerij van widgets",
        "Name[nn]": "Elementgalleri",
        "Name[pl]": "Galeria elementów interfejsu",
        "Name[pt]": "Galeria de elementos",
        "Name[pt_BR]": "Galeria de widgets",
        "Name[ru]": "Галерея виджетов",
        "Name[sk]": "Galéria miniaplikácií",
        "Name[sl]": "Galerija gradnikov",
        "Name[sv]": "Grafiskt komponentgalleri",
        "Name[tr]": "Araç takımları galerisi",
        "Name[uk]": "Галерея віджетів",
        "Name[vi]": "Bộ sưu tập phụ kiện",
        "Name[x-test]": "xxWidgets galleryxx",
        "Name[zh_CN]": "挂件展厅",
        "Version": "1.0",
        "Website": "https://plasma.kde.org/"
    },
    "X-Plasma-API": "declarativeappletscript",
    "X-Plasma-MainScript": "ui/main.qml"
}
